<?xml version="1.0" encoding="UTF-8" standalone="no"?>
<svg
   viewBox="0 0 34 22"
   version="1.1"
   id="svg1"
   xmlns="http://www.w3.org/2000/svg"
   xmlns:svg="http://www.w3.org/2000/svg">
  <defs
     id="defs1" />
  <g
     class="layer"
     id="g1">
    <title
       id="title1">Layer 1</title>
    <path
       id="svg_1"
       d="m 11.490234,0.58007812 c -0.739999,0 -1.329766,0.22039106 -1.7597652,0.65039068 -0.4999995,0.4999994 -0.7402344,1.240001 -0.7402344,2.25 0,0.8499991 -0.080782,3.3192208 -0.3007813,5.4492187 C 8.1494537,8.7696877 7.5704682,8.6701562 6.9804688,8.6601562 h -0.060547 c -3.4299966,0 -6.23953131,2.7789878 -6.26953128,6.2089848 -0.02,1.739998 0.69898568,3.421329 1.95898438,4.611328 0.9499991,0.909999 2.1511732,1.489922 3.4511719,1.669922 0.2699997,0.03 0.5388284,0.04883 0.7988281,0.04883 h 0.050781 c 0.2399998,0 0.4900003,-0.0091 0.75,-0.03906 1.4699986,-0.17 2.8296111,-0.86922 3.8496101,-1.949218 1.069999,-1.149999 1.659687,-2.650705 1.679687,-4.220704 0.02,-2.369997 -1.278986,-4.439298 -3.2089845,-5.5292965 0.039999,-0.3299997 0.069608,-0.6814847 0.099608,-1.0214844 2.329998,1.2499988 3.369298,2.8514859 4.279297,4.2714849 0.899999,1.389998 1.76008,2.708281 3.580078,3.238281 0.01,0 0.01149,0.01172 0.02148,0.01172 h 0.0098 c 0.02,0 0.03883,0.0098 0.04883,0.0098 0.06,0.02 0.110157,0.0193 0.160157,0.0293 h 0.01953 0.01172 l 2.669921,-0.07031 c 0.38,3.059996 2.978441,5.460234 6.148438,5.490234 h 0.06055 c 3.429996,0 6.239531,-2.768988 6.269531,-6.208984 0.01868,-1.610968 -0.584567,-3.085044 -1.580078,-4.207032 l -0.773438,1.154297 c 0.644466,0.843135 1.026262,1.89396 1.013672,3.03125 -0.02,2.719997 -2.22969,4.900391 -4.929687,4.900391 h -0.05078 c -2.449997,-0.03 -4.458359,-1.839221 -4.818359,-4.199219 l 4.888672,-0.130859 c 0.25,0 0.460313,-0.149376 0.570313,-0.359375 0.119999,-0.22 0.100937,-0.479454 -0.03906,-0.689453 l -2.720703,-3.990235 c 0.418177,-0.205968 0.865613,-0.345928 1.326172,-0.427734 l 0.01953,-0.191407 h -0.117187 a 2.00056,2.00056 0 0 1 -0.0078,0 C 25.520577,10.099013 24.974259,9.830679 24.566406,9.4199219 24.431769,9.4795795 24.29909,9.5410792 24.169922,9.609375 L 22.25,6.7890625 22.820312,5.3398438 c 0.01,-0.01 0.0098,-0.019297 0.0098,-0.029297 l 1.089844,0.00977 h 0.0098 c 0.419999,0 0.811094,-0.1609378 1.121093,-0.4609375 0.3,-0.2899997 0.46875,-0.6893754 0.46875,-1.109375 0.01,-0.8799991 -0.700313,-1.599375 -1.570312,-1.609375 L 20.769531,2.109375 H 20.75 c -0.42,0 -0.809375,0.1611722 -1.109375,0.4511719 -0.31,0.2999997 -0.480469,0.699141 -0.480469,1.1191406 -0.01,0.4199996 0.149219,0.8208597 0.449219,1.1308594 0.3,0.2999997 0.701094,0.46875 1.121094,0.46875 l 0.669922,0.00977 -0.330079,0.8710937 -10.830078,-0.099609 c 0.07,-1.4499986 0.08984,-2.5500782 0.08984,-2.5800781 0,-0.6299994 0.109844,-1.0707815 0.339844,-1.3007813 0.18,-0.1799998 0.440313,-0.2597656 0.820312,-0.2597656 h 1.798828 c 0.37,0 0.671876,-0.2999223 0.671876,-0.6699219 0,-0.36999963 -0.311876,-0.66992187 -0.671876,-0.66992188 z m 9.25,2.65039068 H 20.75 l 3.179688,0.029297 c 0.259999,0.01 0.480703,0.220469 0.470703,0.4804688 0,0.2599997 -0.220704,0.4707031 -0.470703,0.4707031 h -0.0098 L 20.7402,4.1796877 c -0.12,0 -0.240078,-0.050625 -0.330078,-0.140625 -0.09,-0.09 -0.140625,-0.2098439 -0.140625,-0.3398437 0,-0.1199999 0.05063,-0.2400783 0.140625,-0.3300782 0.09,-0.09 0.210078,-0.1386719 0.330078,-0.1386718 z M 10.970703,7.4101562 20.539062,7.5 17.810547,14.490234 c -1.009999,-0.469999 -1.580079,-1.350001 -2.330078,-2.5 C 14.56047,10.550236 13.430701,8.8001549 10.970703,7.4101562 Z m 10.689453,0.9003907 1.400391,2.0488281 c -1.229999,1.039999 -2.060938,2.540236 -2.210938,4.240234 l -1.660156,0.04102 z M 6.9101562,10 h 0.050781 c 0.5499994,0.01 1.0685942,0.09953 1.5585937,0.269531 -0.1099998,0.72 -0.2403907,1.311407 -0.4003906,1.691407 -0.7999992,1.889998 -1.4990625,2.389921 -1.5390625,2.419921 -0.3099997,0.19 -0.4199998,0.578438 -0.25,0.898438 0.1199999,0.22 0.359844,0.351562 0.5898438,0.351562 0.1099999,0 0.2203126,-0.0318 0.3203125,-0.0918 0.1799998,-0.1 1.119376,-0.698361 2.109375,-3.068359 0.1699998,-0.379999 0.299922,-0.930547 0.4199218,-1.560547 1.2699991,0.909999 2.1000781,2.40008 2.0800781,4.080078 -0.01,1.229999 -0.480313,2.410548 -1.320312,3.310547 C 9.7292977,19.15078 8.6499988,19.699844 7.5,19.839844 c -0.2099998,0.02 -0.4308596,0.0293 -0.6308594,0.0293 -0.2099998,0 -0.4189064,-0.01883 -0.6289062,-0.04883 -1.019999,-0.139999 -1.9607039,-0.590547 -2.7207032,-1.310546 -0.989999,-0.939999 -1.5490624,-2.259142 -1.5390624,-3.619141 0.02,-1.319999 0.5404696,-2.56047 1.4804687,-3.480469 C 4.3909366,10.500157 5.6101575,10 6.9101562,10 Z m 16.9101558,1.470703 2.029297,2.990235 -3.65039,0.09961 c 0.13,-1.109999 0.631407,-2.139688 1.441406,-2.929688 0.06,-0.06 0.119688,-0.110156 0.179687,-0.160157 z" />
    <path
       d="m 5.17,11.54 c -1.1,0.5 -1.82,1.61 -1.83,2.81 0,0.1 0,0.19 0.01,0.28 0.01,0.17 0.16,0.31 0.33,0.31 0.01,0 0.02,0 0.03,0 C 3.89,14.92 4.03,14.76 4.02,14.58 4.01,14.5 4.01,14.43 4.01,14.36 4.02,13.41 4.58,12.54 5.45,12.15 5.62,12.07 5.69,11.87 5.61,11.71 5.54,11.54 5.34,11.47 5.17,11.54 Z"
       id="svg_2" />
    <path
       d="m 29.03,16.58 c -0.04,0.05 -0.09,0.11 -0.14,0.17 -0.6,0.73 -1.59,1.05 -2.51,0.8 -0.18,-0.04 -0.36,0.06 -0.41,0.24 -0.05,0.18 0.06,0.36 0.24,0.41 0.26,0.06 0.52,0.1 0.79,0.1 0.91,0 1.81,-0.41 2.41,-1.13 0.06,-0.07 0.11,-0.14 0.17,-0.22 0.1,-0.15 0.06,-0.36 -0.09,-0.46 -0.15,-0.11 -0.36,-0.07 -0.46,0.09 z"
       id="svg_3" />
    <g
       id="svg_6">
      <g
         id="path4">
        <path
           style="color:#000000;fill:#000000;stroke-linecap:round;stroke-linejoin:round;-inkscape-stroke:none;paint-order:markers stroke fill"
           d="m 30.029024,1.5014079 a 0.37954045,0.37935278 0 0 0 -0.281662,0.1659507 l -3.913619,5.8438205 a 0.37954045,0.37935278 0 0 0 0.314276,0.5897159 h 2.339276 l -0.364678,3.479028 a 0.37954045,0.37935278 0 0 0 0.693778,0.251888 L 32.73298,5.9909564 A 0.37954045,0.37935278 0 0 0 32.41574,5.4012405 h -2.339278 l 0.364679,-3.481993 A 0.37954045,0.37935278 0 0 0 30.029024,1.5014079 Z"
           id="path6" />
      </g>
    </g>
  </g>
</svg>
