<?xml version="1.0" encoding="UTF-8" standalone="no"?>
<svg
   viewBox="0 0 34 22"
   version="1.1"
   id="svg1"
   xmlns="http://www.w3.org/2000/svg"
   xmlns:svg="http://www.w3.org/2000/svg">
  <defs
     id="defs1" />
  <g
     class="layer"
     id="g1">
    <title
       id="title1">Layer 1</title>
    <g
       id="g6"
       transform="translate(0.28125,0.24023399)">
      <g
         id="g27"
         transform="matrix(1.0808124,0,0,1.0808124,-0.99978489,-0.79247004)">
        <path
           id="svg_1"
           style="stroke:none;stroke-width:0.792244"
           d="m 17.476562,2.8131347 c -0.586258,-1.4e-5 -1.053867,0.1749604 -1.394531,0.515625 -0.39612,0.3961206 -0.451172,0.9810848 -0.451172,1.78125 V 6.2643066 L 1.5566406,8.6236816 a 0.52505248,0.52505248 0 0 0 -0.4375,0.5195312 v 6.4472682 a 0.52505248,0.52505248 0 0 0 0.5253906,0.523438 h 1.1972657 c 0.262709,2.476842 2.3673868,4.416015 4.9121093,4.416015 2.5447228,0 4.6511308,-1.939173 4.9140628,-4.416015 h 2.96289 v 0.0039 h 3.621094 l 2.529297,-0.04102 c 0.301052,2.424261 2.361639,4.325843 4.873047,4.34961 h 0.04687 c 2.717389,0 4.94303,-2.19461 4.966797,-4.919922 0.03169,-2.73257 -2.177713,-4.980925 -4.917964,-5.013663 h -0.002 -0.04687 c -0.831854,0 -1.62325,0.213694 -2.3125,0.578126 L 22.867188,8.8365722 23.318359,7.6881347 c 0.0079,-0.0079 0.0078,-0.015517 0.0078,-0.023437 l 0.863281,0.00781 h 0.0078 c 0.33274,0 0.643076,-0.1275616 0.888672,-0.3652344 0.237671,-0.2297507 0.371093,-0.5461645 0.371093,-0.8789062 0.0079,-0.6971733 -0.55489,-1.2674686 -1.24414,-1.2753906 l -2.517579,-0.023437 h -0.01758 c -0.33274,0 -0.641233,0.1257179 -0.878906,0.3554687 -0.245596,0.2376728 -0.378906,0.5559302 -0.378906,0.8886719 -0.0079,0.3327407 0.117795,0.6489365 0.355469,0.8945312 0.237671,0.2376728 0.553978,0.3730469 0.886718,0.3730469 l 0.53125,0.00781 -0.261718,0.6875 -2.552735,6.7324248 h -2.697265 c 0.05546,-1.148751 0,-9.9352193 0,-9.9589873 0,-0.4991125 -0.03768,-0.847082 0.144531,-1.0292969 0.142604,-0.1426038 0.34934,-0.2714843 0.65039,-0.2714843 h 1.425782 c 0.293128,0 0.53125,-0.1717141 0.53125,-0.4648438 0,-0.2931287 -0.246044,-0.531243 -0.53125,-0.53125 z m 4.19336,3.203125 h 0.0078 l 2.519532,0.023437 c 0.205981,0.0079 0.380969,0.1748766 0.373046,0.3808594 0,0.2059828 -0.174987,0.3710937 -0.373046,0.3710937 h -0.0078 l -2.519531,-0.023437 c -0.09507,0 -0.188463,-0.03807 -0.259766,-0.109375 -0.0713,-0.0713 -0.111328,-0.1665393 -0.111328,-0.2695312 0,-0.09507 0.04002,-0.1904168 0.111328,-0.2617188 0.0713,-0.0713 0.164697,-0.1113281 0.259766,-0.1113281 z m -6.039063,1.3144531 v 7.7343782 h -2.96289 c -0.2638,-2.476141 -2.369786,-4.416017 -4.9140628,-4.416017 -2.5442767,0 -4.6485334,1.939877 -4.9121093,4.416017 H 2.1679688 V 9.5865721 Z m 6.769532,2.7109372 1.107421,1.62305 c -0.974458,0.823931 -1.631164,2.012563 -1.75,3.359375 l -1.314453,0.04492 z m 4.300781,1.503909 h 0.03906 c 2.154898,0.02377 3.890955,1.798337 3.867188,3.945313 -0.01584,2.154898 -1.767197,3.882812 -3.90625,3.882812 h -0.03906 c -1.940994,-0.02377 -3.533152,-1.458432 -3.81836,-3.328125 l 3.873047,-0.101562 c 0.19806,0 0.364026,-0.120739 0.451172,-0.287109 0.09507,-0.174293 0.07966,-0.378553 -0.03125,-0.544922 l -2.154297,-3.16211 c 0.530801,-0.261439 1.116646,-0.404297 1.71875,-0.404297 z M 7.7539062,11.7897 c 1.9267743,0 3.5069498,1.420658 3.7617188,3.275391 0.02361,0.171911 0.03906,0.346788 0.03906,0.52539 0,0.178366 -0.01551,0.351767 -0.03906,0.523438 -0.254442,1.854788 -1.8344935,3.27539 -3.7617188,3.27539 -1.9272251,0 -3.5056019,-1.420603 -3.7597656,-3.27539 -0.023524,-0.171671 -0.039063,-0.345072 -0.039063,-0.523438 0,-0.178602 0.015473,-0.353479 0.039063,-0.52539 C 4.2486309,13.210359 5.8271317,11.7897 7.7539062,11.7897 Z m 16.3574218,0.753906 1.607422,2.369141 -2.890625,0.08008 c 0.102992,-0.879388 0.49891,-1.696393 1.140625,-2.322266 0.04753,-0.04753 0.09504,-0.08734 0.142578,-0.126953 z" />
        <path
           d="m 27.33638,12.652946 c 0.05044,0.0054 0.111835,0.0131 0.173223,0.02086 0.743335,0.08877 1.379546,0.612861 1.605467,1.333576 0.05015,0.137205 0.19373,0.214643 0.335207,0.171164 0.141473,-0.04348 0.214643,-0.19373 0.171164,-0.335207 -0.07096,-0.199131 -0.155265,-0.389725 -0.270533,-0.569916 -0.388496,-0.607311 -1.046348,-1.032913 -1.78301,-1.125956 -0.07233,-0.01015 -0.140395,-0.01364 -0.219399,-0.01953 -0.1428,-0.0027 -0.265867,0.113652 -0.26857,0.256445 -0.0094,0.147069 0.106971,0.27014 0.256445,0.268571 z"
           id="svg_3"
           style="stroke-width:0.792244" />
        <path
           d="m 7.4279335,18.231947 c -0.050727,1.17e-4 -0.1125961,-9.71e-4 -0.1744617,-0.0021 -0.7485736,-0.0081 -1.4375601,-0.460615 -1.7398389,-1.152785 -0.064645,-0.131001 -0.2157338,-0.192514 -0.3517009,-0.134041 -0.1359627,0.05847 -0.1925139,0.215734 -0.1340408,0.351701 0.092008,0.190324 0.1963614,0.370722 0.330378,0.537442 0.4516845,0.561904 1.1515726,0.914129 1.8939709,0.927239 0.073004,0.0023 0.1410482,-0.0016 0.220226,-0.0042 0.1422606,-0.0127 0.2520702,-0.141643 0.2393691,-0.283895 -0.00653,-0.147223 -0.1354624,-0.257039 -0.2838958,-0.23937 z"
           id="svg_3-4"
           style="stroke-width:0.792244" />
      </g>
    </g>
  </g>
</svg>
