<svg viewBox="0 0 43 60" fill="none" xmlns="http://www.w3.org/2000/svg">
<path d="M42.665 21.3158C42.665 31.4595 32.2707 44.0514 24.9166 54.9171C23.3111 57.2891 19.7725 57.451 18.0584 55.1562C8.88885 42.8804 0.665039 31.7343 0.665039 21.3158C0.665039 9.5434 10.0671 0 21.665 0C33.263 0 42.665 9.5434 42.665 21.3158Z" fill="#246AEA"/>
</svg>
