<?xml version="1.0" encoding="UTF-8" standalone="no"?>
<svg
   viewBox="0 0 34 22"
   version="1.1"
   id="svg1"
   xmlns="http://www.w3.org/2000/svg"
   xmlns:svg="http://www.w3.org/2000/svg">
  <defs
     id="defs1" />
  <g
     class="layer"
     id="g1">
    <title
       id="title1">Layer 1</title>
    <g
       id="g6"
       transform="translate(0.28125,0.24023399)">
      <g
         id="g27"
         transform="matrix(1.0808124,0,0,1.0808124,-0.99978489,-0.79247004)">
        <path
           id="svg_1"
           style="stroke:none;stroke-width:0.792244"
           d="M 17.476166,2.8131777 C 16.889908,2.8131637 16.423563,2.987534 16.0829,3.3281982 15.68678,3.7243184 15.631127,4.3098243 15.631127,5.1099887 V 6.2647191 L 1.5575123,8.6229712 A 0.52505248,0.52505248 0 0 0 1.1183895,9.143413 v 6.447696 a 0.52505248,0.52505248 0 0 0 0.5258631,0.522249 h 1.1981005 c 0.2627088,2.47684 2.36695,4.416527 4.91167,4.416527 2.5447199,0 4.6505449,-1.939687 4.9134769,-4.416527 h 2.963627 v 0.0036 h 3.621408 l 2.528119,-0.03976 c 0.301051,2.424259 2.362315,4.325898 4.873721,4.349665 h 0.04698 c 2.717386,0 4.942116,-2.195396 4.965883,-4.920705 0.01943,-1.675511 -0.804878,-3.166332 -2.076347,-4.078602 l -0.587304,0.876439 c 0.982302,0.720529 1.619121,1.884627 1.604696,3.187706 -0.01584,2.154896 -1.767877,3.881629 -3.906928,3.881629 h -0.03976 c -1.940984,-0.02375 -3.533165,-1.45895 -3.818373,-3.328641 l 3.874401,-0.101197 c 0.19806,0 0.362819,-0.120958 0.449965,-0.287328 0.09507,-0.174292 0.08019,-0.377565 -0.03072,-0.543934 l -1.474586,-2.164893 c -0.525647,-0.461421 -0.884127,-1.195221 -0.80054,-1.931779 l 0.01807,-0.168059 c -0.168362,0.06704 -0.3332,0.140364 -0.491529,0.224079 L 22.866715,8.8362078 22.96249,8.5940577 C 22.684575,8.0342926 22.616471,7.371302 22.859486,6.7797396 l -1.189065,-0.010842 c -0.09507,0 -0.188918,-0.038927 -0.260221,-0.1102325 -0.0713,-0.0713 -0.112039,-0.1662645 -0.112039,-0.2692563 0,-0.09507 0.04073,-0.1907261 0.112039,-0.2620281 0.0713,-0.0713 0.165152,-0.1102324 0.260221,-0.1102324 h 0.0072 l 1.633609,0.014457 0.590918,-0.8818598 -2.206457,-0.019878 h -0.01807 c -0.33274,0 -0.640573,0.1262461 -0.878246,0.3559967 -0.245596,0.2376726 -0.379489,0.5545397 -0.379489,0.8872811 -0.0079,0.3327403 0.118323,0.6489149 0.355997,0.8945094 0.23767,0.2376725 0.552734,0.3740675 0.885474,0.3740675 l 0.531284,0.00723 -0.260221,0.6885012 -2.553418,6.7314086 h -2.697985 c 0.05546,-1.14875 0,-9.9351029 0,-9.9588709 0,-0.499112 -0.03764,-0.8478264 0.144568,-1.0300411 0.142603,-0.1426037 0.349502,-0.2710635 0.650552,-0.2710635 h 1.425794 c 0.293127,0 0.531284,-0.1712926 0.531284,-0.4644221 0,-0.2931284 -0.246079,-0.5312773 -0.531284,-0.5312843 z M 15.631127,7.330902 v 7.734344 H 12.6675 c -0.2638,-2.476138 -2.369203,-4.416527 -4.9134769,-4.416527 -2.5442742,0 -4.6480943,1.94039 -4.91167,4.416527 H 2.1683087 V 9.58615 Z m 6.769358,2.710635 1.107746,1.622766 c -0.974457,0.82393 -1.632234,2.012569 -1.75107,3.35938 l -1.313754,0.04518 z M 7.7540231,11.788992 c 1.9267723,0 3.5075919,1.421523 3.7623609,3.276254 0.02361,0.171911 0.03795,0.347261 0.03795,0.525863 0,0.178366 -0.0144,0.350578 -0.03795,0.522249 -0.254442,1.854786 -1.8351376,3.276254 -3.7623609,3.276254 -1.9272232,0 -3.5063904,-1.421469 -3.7605538,-3.276254 -0.023524,-0.171671 -0.037949,-0.343883 -0.037949,-0.522249 0,-0.178602 0.014359,-0.353952 0.037949,-0.525863 0.25449,-1.85473 1.8337812,-3.276254 3.7605538,-3.276254 z m 16.3577759,0.755364 1.606503,2.369095 -2.889536,0.07951 c 0.102992,-0.879388 0.498559,-1.696238 1.140273,-2.322111 0.04753,-0.04753 0.09522,-0.08688 0.14276,-0.126496 z" />
        <path
           d="m 27.33638,12.652946 c 0.05044,0.0054 0.111835,0.0131 0.173223,0.02086 0.743335,0.08877 1.379546,0.612861 1.605467,1.333576 0.05015,0.137205 0.19373,0.214643 0.335207,0.171164 0.141473,-0.04348 0.214643,-0.19373 0.171164,-0.335207 -0.07096,-0.199131 -0.155265,-0.389725 -0.270533,-0.569916 -0.388496,-0.607311 -1.046348,-1.032913 -1.78301,-1.125956 -0.07233,-0.01015 -0.140395,-0.01364 -0.219399,-0.01953 -0.1428,-0.0027 -0.265867,0.113652 -0.26857,0.256445 -0.0094,0.147069 0.106971,0.27014 0.256445,0.268571 z"
           id="svg_3"
           style="stroke-width:0.792244" />
        <path
           d="m 7.4279335,18.231947 c -0.050727,1.17e-4 -0.1125961,-9.71e-4 -0.1744617,-0.0021 -0.7485736,-0.0081 -1.4375601,-0.460615 -1.7398389,-1.152785 -0.064645,-0.131001 -0.2157338,-0.192514 -0.3517009,-0.134041 -0.1359627,0.05847 -0.1925139,0.215734 -0.1340408,0.351701 0.092008,0.190324 0.1963614,0.370722 0.330378,0.537442 0.4516845,0.561904 1.1515726,0.914129 1.8939709,0.927239 0.073004,0.0023 0.1410482,-0.0016 0.220226,-0.0042 0.1422606,-0.0127 0.2520702,-0.141643 0.2393691,-0.283895 -0.00653,-0.147223 -0.1354624,-0.257039 -0.2838958,-0.23937 z"
           id="svg_3-4"
           style="stroke-width:0.792244" />
      </g>
    </g>
  </g>
  <g
     id="path4">
    <path
       style="color:#000000;fill:#000000;stroke-linecap:round;stroke-linejoin:round;-inkscape-stroke:none;paint-order:markers stroke fill"
       d="M 30.045776,1.5014064 A 0.37954045,0.37935278 0 0 0 29.764114,1.6673571 L 25.850495,7.511178 a 0.37954045,0.37935278 0 0 0 0.314276,0.589716 h 2.339276 l -0.364678,3.479027 a 0.37954045,0.37935278 0 0 0 0.693778,0.251888 L 32.749732,5.9909549 A 0.37954045,0.37935278 0 0 0 32.432492,5.401239 H 30.093214 L 30.457893,1.919246 A 0.37954045,0.37935278 0 0 0 30.045776,1.5014064 Z"
       id="path3" />
  </g>
</svg>
