<?xml version="1.0" encoding="UTF-8" standalone="no"?>
<!-- Created with Inkscape (http://www.inkscape.org/) -->

<svg
   version="1.1"
   id="svg2"
   xml:space="preserve"
   width="432"
   height="432"
   viewBox="0 0 432 432"
   sodipodi:docname="Guide-depart_vecteur.ai"
   xmlns:inkscape="http://www.inkscape.org/namespaces/inkscape"
   xmlns:sodipodi="http://sodipodi.sourceforge.net/DTD/sodipodi-0.dtd"
   xmlns="http://www.w3.org/2000/svg"
   xmlns:svg="http://www.w3.org/2000/svg"><defs
     id="defs6"><clipPath
       clipPathUnits="userSpaceOnUse"
       id="clipPath16"><path
         d="M 0,324 H 324 V 0 H 0 Z"
         id="path14" /></clipPath></defs><sodipodi:namedview
     id="namedview4"
     pagecolor="#ffffff"
     bordercolor="#666666"
     borderopacity="1.0"
     inkscape:pageshadow="2"
     inkscape:pageopacity="0.0"
     inkscape:pagecheckerboard="0" /><g
     id="g8"
     inkscape:groupmode="layer"
     inkscape:label="Guide-depart_vecteur"
     transform="matrix(1.3333333,0,0,-1.3333333,0,432)"><g
       id="g10"><g
         id="g12"
         clip-path="url(#clipPath16)"><g
           id="g18"
           transform="translate(310.8866,162)"><path
             d="m 0,0 c 0,-82.228 -66.659,-148.887 -148.887,-148.887 -82.227,0 -148.886,66.659 -148.886,148.887 0,82.228 66.659,148.887 148.886,148.887 C -66.659,148.887 0,82.228 0,0"
             style="fill:#ffcb57;fill-opacity:1;fill-rule:nonzero;stroke:none"
             id="path20" /></g><g
           id="g22"
           transform="translate(156.913,53.4949)"><path
             d="m 0,0 c 0,0 -69.164,44.726 -77.809,90.984 -8.646,46.257 33.141,66.43 57.636,57.784 24.496,-8.645 28.818,-30.387 28.818,-30.387 0,0 17.291,41.501 51.873,32.342 C 95.1,141.564 109.509,94.641 86.455,65.509 63.4,36.377 0,0 0,0"
             style="fill:#fa512c;fill-opacity:1;fill-rule:nonzero;stroke:none"
             id="path24" /></g><g
           id="g26"
           transform="translate(84.134,212.9512)"><path
             d="m 0,0 c -0.967,0 -1.817,0.702 -1.973,1.687 l -2.345,14.811 c -0.172,1.091 0.572,2.115 1.663,2.288 1.083,0.171 2.115,-0.571 2.288,-1.663 L 1.978,2.313 C 2.15,1.222 1.406,0.197 0.315,0.024 0.209,0.008 0.104,0 0,0"
             style="fill:#00ada8;fill-opacity:1;fill-rule:nonzero;stroke:none"
             id="path28" /></g><g
           id="g30"
           transform="translate(64.7834,199.8419)"><path
             d="m 0,0 c -0.408,0 -0.819,0.124 -1.174,0.382 l -13.938,10.125 c -0.894,0.649 -1.092,1.9 -0.443,2.794 0.651,0.892 1.901,1.09 2.794,0.442 L 1.177,3.618 C 2.071,2.969 2.269,1.718 1.62,0.824 1.228,0.286 0.618,0 0,0"
             style="fill:#00ada8;fill-opacity:1;fill-rule:nonzero;stroke:none"
             id="path32" /></g><g
           id="g34"
           transform="translate(55.5823,178.1544)"><path
             d="m 0,0 h -0.034 l -16.994,0.281 c -1.104,0.019 -1.985,0.929 -1.966,2.033 0.018,1.105 0.923,1.973 2.033,1.967 L 0.033,4 C 1.137,3.981 2.018,3.071 1.999,1.967 1.981,0.874 1.089,0 0,0"
             style="fill:#00ada8;fill-opacity:1;fill-rule:nonzero;stroke:none"
             id="path36" /></g><g
           id="g38"
           transform="translate(136.9812,153.6001)"><path
             d="m 0,0 c 0,-2.948 -2.39,-5.337 -5.337,-5.337 -2.948,0 -5.338,2.389 -5.338,5.337 0,2.948 2.39,5.337 5.338,5.337 C -2.39,5.337 0,2.948 0,0"
             style="fill:#ffffff;fill-opacity:1;fill-rule:nonzero;stroke:none"
             id="path40" /></g><g
           id="g42"
           transform="translate(197.6693,152.6001)"><path
             d="m 0,0 c 0,-2.948 -2.39,-5.337 -5.337,-5.337 -2.948,0 -5.338,2.389 -5.338,5.337 0,2.948 2.39,5.337 5.338,5.337 C -2.39,5.337 0,2.948 0,0"
             style="fill:#ffffff;fill-opacity:1;fill-rule:nonzero;stroke:none"
             id="path44" /></g><g
           id="g46"
           transform="translate(130.7625,211.2061)"><path
             d="M 0,0 C -0.03,0 -0.061,0.001 -0.091,0.002 -1.194,0.052 -2.049,0.986 -2,2.09 l 2.241,49.942 c 0.043,0.944 0.74,1.73 1.672,1.884 0.936,0.148 1.845,-0.365 2.189,-1.246 L 22.393,5.852 C 22.794,4.823 22.287,3.663 21.257,3.261 20.23,2.86 19.069,3.367 18.667,4.396 L 3.814,42.416 1.997,1.91 C 1.948,0.838 1.063,0 0,0"
             style="fill:#1e4847;fill-opacity:1;fill-rule:nonzero;stroke:none"
             id="path48" /></g><g
           id="g50"
           transform="translate(163.9636,214.2208)"><path
             d="m 0,0 c -0.395,0 -0.784,0.116 -1.116,0.341 -0.456,0.305 -0.765,0.786 -0.856,1.327 l -8.894,52.875 c -0.183,1.09 0.551,2.121 1.64,2.305 1.084,0.183 2.121,-0.551 2.304,-1.641 L 1.623,4.412 13.63,7.097 C 14.708,7.329 15.777,6.658 16.018,5.581 16.259,4.503 15.581,3.434 14.503,3.192 L 0.437,0.048 C 0.292,0.016 0.146,0 0,0"
             style="fill:#1e4847;fill-opacity:1;fill-rule:nonzero;stroke:none"
             id="path52" /></g><g
           id="g54"
           transform="translate(188.5945,221.085)"><path
             d="m 0,0 c -0.933,0 -1.764,0.654 -1.958,1.599 l -10.108,49.364 c -0.222,1.082 0.476,2.139 1.558,2.36 1.083,0.222 2.139,-0.476 2.361,-1.557 L 1.573,4.3 14.736,6.562 C 15.825,6.76 16.858,6.02 17.046,4.931 17.233,3.842 16.502,2.808 15.414,2.621 L 0.341,0.029 C 0.227,0.009 0.112,0 0,0"
             style="fill:#1e4847;fill-opacity:1;fill-rule:nonzero;stroke:none"
             id="path56" /></g><g
           id="g58"
           transform="translate(132.8552,232.4893)"><path
             d="m 0,0 c -0.958,0 -1.804,0.689 -1.969,1.665 -0.185,1.089 0.548,2.122 1.636,2.307 L 9.229,5.595 C 10.318,5.784 11.35,5.047 11.535,3.958 11.72,2.869 10.987,1.836 9.898,1.651 L 0.337,0.028 C 0.224,0.009 0.111,0 0,0"
             style="fill:#1e4847;fill-opacity:1;fill-rule:nonzero;stroke:none"
             id="path60" /></g><g
           id="g62"
           transform="translate(207.2458,249.3487)"><path
             d="m 0,0 c 2.356,-10.84 6.748,-17.072 10.056,-18.44 1.081,-0.449 2.02,-0.376 2.954,0.225 3.959,2.549 3.963,15.308 1.698,25.667 C 13.153,14.556 9.049,23.577 5.128,25.764 4.042,26.369 3.322,26.232 2.874,26.075 -1.668,24.479 -2.39,10.992 0,0 m 11.39,-22.732 c -0.942,0 -1.903,0.198 -2.864,0.595 -5.292,2.19 -10.056,10.347 -12.435,21.287 v 0 c -2.247,10.338 -2.753,27.815 5.456,30.699 1.792,0.631 3.705,0.426 5.53,-0.592 5.812,-3.241 10.084,-14.305 11.538,-20.949 0.217,-0.992 5.206,-24.32 -3.439,-29.886 -1.193,-0.768 -2.471,-1.154 -3.786,-1.154"
             style="fill:#1e4847;fill-opacity:1;fill-rule:nonzero;stroke:none"
             id="path64" /></g><g
           id="g66"
           transform="translate(162.0037,101.294)"><path
             d="m 0,0 c -0.286,0 -0.57,0.004 -0.856,0.01 -14.423,0.339 -26.668,8.991 -32.757,23.145 l 4.593,1.977 C -23.725,12.822 -13.153,5.3 -0.739,5.009 11.816,4.706 23.253,12.003 29.11,24.029 L 33.605,21.84 C 27.015,8.306 14.193,0 0,0"
             style="fill:#ffffff;fill-opacity:1;fill-rule:nonzero;stroke:none"
             id="path68" /></g></g></g></g></svg>
